all, Allstate Corporation The
gt, The Goodyear Tire Rubber Company
gs, Goldman Sachs Group Inc The
nws, News Corporation
pep, Pepsico Inc
scg, Scana Corporation
ptc, PTC Inc
lly, Eli Lilly and Company
ge, General Electric Company
gd, General Dynamics Corporation
vno, Vornado Realty Trust
ice, Intercontinental Exchange Inc
lll, L Technologies Inc
nwl, Newell Brands Inc
sci, Service Corporation International
gm, General Motors Company
kate, kate
sune, sune
mww, mww
mdlz, Mondelez International Inc
wmt, Walmart Inc
wmb, Williams Companies Inc The
te, te
mpc, Marathon Petroleum Corporation
vlo, Valero Energy Corporation
amgn, Amgen Inc
cpgx, cpgx
vrsn, VeriSign Inc
rad, Rite Aid Corporation
fhn, First Horizon National Corporation
vrsk, Verisk Analytics Inc
cmi, Cummins Inc
cmg, Chipotle Mexican Grill Inc
bxp, Boston Properties Inc
cme, CME Group Inc
wfm, wfm
pby, Prospect Capital Corporation
cma, Comerica Incorporated
mnk, Mallinckrodt plc
nwsa, News Corporation
tkr, Timken Company The
sanm, Sanmina Corporation
cms, CMS Energy Corporation
mo, Altria Group
dis, Walt Disney Company The
spxc, SPX Corporation
jbht, J B Hunt Transport Services Inc
ten, Tenneco Inc
odp, Office Depot Inc
cfg, Citizens Financial Group Inc
rrd, R R Donnelley Sons Company
rrc, Range Resources Corporation
sre, Sempra Energy
tex, Terex Corporation
rop, Roper Technologies Inc
cost, Costco Wholesale Corporation
nbl, Noble Energy Inc
ter, Teradyne Inc
lvlt, lvlt
abc, AmerisourceBergen Corporation Holding Co
slm, SLM Corporation
nee, NextEra Energy Inc
abt, Abbott Laboratories
abx, Barrick Gold Corporation
celg, Celgene Corporation
bdx, Becton Dickinson and Company
ggp, ggp
leg, Leggett Platt Incorporated
len, Lennar Corporation
met, MetLife Inc
ilmn, Illumina Inc
slg, SL Green Realty Corp
hbi, Hanesbrands Inc
tmk, Torchmark Corporation
aks, AK Steel Holding Corporation
k, Kellogg Company
pbct, People s United Financial Inc
dri, Darden Restaurants Inc
spls, spls
wft, Weatherford International plc
ctb, Cooper Tire Rubber Company
sjm, J M Smucker Company The
ctl, CenturyLink Inc
glw, Corning Incorporated
txn, Texas Instruments Incorporated
ipg, Interpublic Group of Companies Inc The
win, Windstream Holdings Inc
esrx, Express Scripts Holding Company
aph, Amphenol Corporation
qcom, QUALCOMM Incorporated
apc, Anadarko Petroleum Corporation
apa, Apache Corporation
apd, Air Products and Chemicals Inc
pxd, Pioneer Natural Resources Company
twc, twc
chd, Church Dwight Company Inc
usb, U S Bancorp
dnb, Dun Bradstreet Corporation The
chk, Chesapeake Energy Corporation
sbux, Starbucks Corporation
msi, Motorola Solutions Inc
dnr, Denbury Resources Inc
twx, twx
nflx, Netflix Inc
nke, Nike Inc
pfg, Principal Financial Group Inc
ua, Under Armour Inc
srcl, Stericycle Inc
tmo, Thermo Fisher Scientific Inc
ma, Mastercard Incorporated
ibm, International Business Machines Corporation
f, Ford Motor Company
car, Avis Budget Group Inc
fls, Flowserve Corporation
flr, Fluor Corporation
cat, Caterpillar Inc
mu, Micron Technology Inc
cah, Cardinal Health Inc
brcm, brcm
cam, cam
v, Visa Inc
cag, ConAgra Brands Inc
wfc, Wells Fargo Company
tap, Molson Coors Brewing Company
xom, Exxon Mobil Corporation
ual, United Continental Holdings Inc
spg, Simon Property Group Inc
afl, Aflac Incorporated
hog, Harley Davidson Inc
hon, Honeywell International Inc
rl, Ralph Lauren Corporation
csc, csc
hot, hot
sig, Signet Jewelers Limited
avb, AvalonBay Communities Inc
pypl, PayPal Holdings Inc
chrw, C H Robinson Worldwide Inc
mas, Masco Corporation
mar, Marriott International
mat, Mattel Inc
sna, Snap On Incorporated
fitb, Fifth Third Bancorp
sni, sni
snv, Synovus Financial Corp
mac, Macerich Company The
swks, Skyworks Solutions Inc
klac, KLA Tencor Corporation
fl, Foot Locker Inc
a, Agilent Technologies Inc
csra, csra
mjn, mjn
vfc, V F Corporation
cinf, Cincinnati Financial Corporation
so, Southern Company The
ghc, Graham Holdings Company
fslr, First Solar Inc
se, Sea Limited
jns, jns
kbh, KB Home
vmc, Vulcan Materials Company
nyt, New York Times Company The
jnj, Johnson Johnson
itt, ITT Inc
tsn, Tyson Foods Inc
fis, Fidelity National Information Services Inc
alle, Allegion plc
lb, L Brands Inc
mdp, Meredith Corporation
clf, Cleveland Cliffs Inc
lm, Legg Mason Inc
csco, Cisco Systems Inc
wor, Worthington Industries Inc
lh, Laboratory Corporation of America Holdings
ntrs, Northern Trust Corporation
pch, PotlatchDeltic Corporation
vtr, Ventas Inc
clx, Clorox Company The
pcl, pcl
fii, Federated Investors Inc
pcg, Pacific Gas Electric Co
csx, CSX Corporation
goog, Alphabet Inc
aep, American Electric Power Company Inc
dal, Delta Air Lines Inc
noc, Northrop Grumman Corporation
oke, ONEOK Inc
uhs, Universal Health Services Inc
tjx, TJX Companies Inc The
nov, National Oilwell Varco Inc
oxy, Occidental Petroleum Corporation
mnst, Monster Beverage Corporation
l, Loews Corporation
iff, International Flavors Fragrances Inc
wsh, wsh
tmus, T Mobile US Inc
dlph, Delphi Technologies PLC
nfx, Newfield Exploration Company
el, Estee Lauder Companies Inc The
navi, Navient Corporation
ed, Consolidated Edison Inc
hlt, Hilton Worldwide Holdings Inc
ea, Electronic Arts Inc
bxlt, bxlt
fisv, Fiserv Inc
mdr, McDermott International Inc
ew, Edwards Lifesciences Corporation
es, Eversource Energy
syf, Synchrony Financial
hcp, HCP Inc
ftr, Frontier Communications Corporation
bll, Ball Corporation
rf, Regions Financial Corporation
hca, HCA Healthcare Inc
blk, BlackRock Inc
aon, Aon plc
fti, TechnipFMC plc
hcn, hcn
etfc, E TRADE Financial Corporation
ecl, Ecolab Inc
lmt, Lockheed Martin Corporation
mmm, M Company
bwa, BorgWarner Inc
mkc, McCormick Company Incorporated
ash, Ashland Global Holdings Inc
mmc, Marsh McLennan Companies Inc
kmi, Kinder Morgan Inc
ms, Morgan Stanley
pbi, Pitney Bowes Inc
fb, Facebook Inc
ati, Allegheny Technologies Incorporated
yum, Yum Brands Inc
jwn, Nordstrom Inc
trv, The Travelers Companies Inc
fe, FirstEnergy Corp
xl, xl
pgr, Progressive Corporation The
dfs, Discover Financial Services
tel, TE Connectivity Ltd
syy, Sysco Corporation
vrtx, Vertex Pharmaceuticals Incorporated
eqr, Equity Residential
eqt, EQT Corporation
iac, IAC InterActiveCorp
gpc, Genuine Parts Company
wy, Weyerhaeuser Company
jec, Jacobs Engineering Group Inc
nbr, Nabors Industries Ltd
fmc, FMC Corporation
gps, Gap Inc The
akam, Akamai Technologies Inc
lltc, lltc
hum, Humana Inc
ncr, NCR Corporation
pnr, Pentair plc
pnw, Pinnacle West Capital Corporation
pnc, PNC Financial Services Group Inc The
shld, Sears Holdings Corporation
ben, Franklin Resources Inc
viab, Viacom Inc
aal, American Airlines Group Inc
dltr, Dollar Tree Inc
see, Sealed Air Corporation
hsbc, HSBC Holdings plc
ebay, eBay Inc
stt, State Street Corporation
viav, Viavi Solutions Inc
r, Ryder System Inc
aap, Advance Auto Parts Inc
str, str
stx, Seagate Technology PLC
expe, Expedia Group Inc
lrcx, Lam Research Corporation
bhi, bhi
anf, Abercrombie Fitch Company
pcp, pcp
itw, Illinois Tool Works Inc
san, Banco Santander S A
aapl, Apple Inc
rai, rai
pru, Prudential Financial Inc
mxim, Maxim Integrated Products Inc
ldos, Leidos Holdings Inc
efx, Equifax Inc
biib, Biogen Inc
xrx, Xerox Corporation
ndaq, Nasdaq Inc
ctsh, Cognizant Technology Solutions Corporation
rsg, Republic Services Inc
bsx, Boston Scientific Corporation
cck, Crown Holdings Inc
gild, Gilead Sciences Inc
rht, Red Hat Inc
tyc, tyc
regn, Regeneron Pharmaceuticals Inc
amat, Applied Materials Inc
nem, Newmont Mining Corporation
whr, Whirlpool Corporation
xlnx, Xilinx Inc
axp, American Express Company
exc, Exelon Corporation
lpx, Louisiana Pacific Corporation
ko, Coca Cola Company The
uri, United Rentals Inc
kr, Kroger Company The
mro, Marathon Oil Corporation
exr, Extra Space Storage Inc
mrk, Merck Company Inc
dov, Dover Corporation
dow, dow
wynn, Wynn Resorts Limited
rtn, Raytheon Company
qrvo, Qorvo Inc
ctas, Cintas Corporation
pki, PerkinElmer Inc
trow, T Rowe Price Group Inc
ksu, Kansas City Southern
eqix, Equinix Inc
kss, Kohl s Corporation
hrs, Harris Corporation
hrl, Hormel Foods Corporation
rok, Rockwell Automation Inc
zts, Zoetis Inc
hrb, H R Block Inc
do, Diamond Offshore Drilling Inc
df, Dean Foods Company
dg, Dollar General Corporation
dd, E I du Pont de Nemours and Company
de, Deere Company
ssp, E W Scripps Company The
abbv, AbbVie Inc
dyn, dyn
hig, Hartford Financial Services Group Inc The
dv, dv
disca, Discovery Inc
aes, The AES Corporation
luk, luk
dps, dps
aet, Aetna Inc
emc, emc
shw, Sherwin Williams Company The
emn, Eastman Chemical Company
mhfi, mhfi
bax, Baxter International Inc
orcl, Oracle Corporation
aee, Ameren Corporation
bac, Bank of America Corporation
emr, Emerson Electric Company
x, United States Steel Corporation
crm, Salesforce com Inc
btu, Peabody Energy Corporation
fosl, Fossil Group Inc
stj, stj
sti, SunTrust Banks Inc
mchp, Microchip Technology Incorporated
dte, DTE Energy Company
arg, arg
pvh, PVH Corp
nue, Nucor Corporation
lnc, Lincoln National Corporation
luv, Southwest Airlines Company
mur, Murphy Oil Corporation
prgo, Perrigo Company
apol, apol
bf.b, bf.b
ups, United Parcel Service Inc
xray, DENTSPLY SIRONA Inc
irm, Iron Mountain Incorporated
dlx, Deluxe Corporation
omc, Omnicom Group Inc
endp, Endo International plc
tso, tso
tup, Tupperware Brands Corporation
joy, joy
wm, Waste Management Inc
zbh, Zimmer Biomet Holdings Inc
wu, Western Union Company The
key, KeyCorp
pcar, PACCAR Inc
etr, Entergy Corporation
cop, ConocoPhillips
c, Citigroup Inc
brk.b, brk.b
rlgy, Realogy Holdings Corp
hban, Huntington Bancshares Incorporated
qlgc, qlgc
gww, W W Grainger Inc
stz, Constellation Brands Inc
cog, Cabot Oil Gas Corporation
cof, Capital One Financial Corporation
unh, UnitedHealth Group Incorporated
coh, coh
ctxs, Citrix Systems Inc
expd, Expeditors International of Washington Inc
etn, Eaton Corporation PLC
col, Rockwell Collins Inc
ci, Cigna Corporation
pdco, Patterson Companies Inc
tgt, Target Corporation
cl, Colgate Palmolive Company
cb, Chubb Limited
ca, CA Inc
cf, CF Industries Holdings Inc
antm, Anthem Inc
pom, pom
cr, Crane Co
cxo, Concho Resources Inc
swk, Stanley Black Decker Inc
duk, Duke Energy Corporation
ntap, NetApp Inc
swn, Southwestern Energy Company
px, Praxair Inc
pg, Procter Gamble Company The
bby, Best Buy Co Inc
frt, Federal Realty Investment Trust
txt, Textron Inc
ph, Parker Hannifin Corporation
bbt, BB T Corporation
pm, Philip Morris International Inc
mco, Moody s Corporation
unp, Union Pacific Corporation
grmn, Garmin Ltd
mck, McKesson Corporation
mcd, McDonald s Corporation
gas, gas
bms, Bemis Company Inc
wdc, Western Digital Corporation
bmy, Bristol Myers Squibb Company
has, Hasbro Inc
gnw, Genworth Financial Inc
cvx, Chevron Corporation
aiz, Assurant Inc
eix, Edison International
aiv, Apartment Investment and Management Company
cvs, CVS Health Corporation
mlm, Martin Marietta Materials Inc
cern, Cerner Corporation
tgna, TEGNA Inc
cvg, Convergys Corporation
aig, American International Group Inc
hsic, Henry Schein Inc
cvc, cvc
slb, Schlumberger N V
vc, Visteon Corporation
jpm, J P Morgan Chase Co
avy, Avery Dennison Corporation
ip, International Paper Company
ir, Ingersoll Rand plc Ireland
avp, Avon Products Inc
rig, Transocean Ltd
vz, Verizon Communications Inc
ivz, Invesco Plc
dhi, D R Horton Inc
foxa, Twenty First Century Fox Inc
s, Sprint Corporation
trip, TripAdvisor Inc
pcln, pcln
dhr, Danaher Corporation
wpx, WPX Energy Inc
rdc, Rowan Companies plc
phm, PulteGroup Inc
syk, Stryker Corporation
kim, Kimco Realty Corporation
dgx, Quest Diagnostics Incorporated
lxk, lxk
schw, The Charles Schwab Corporation
unm, Unum Group
ccl, Carnival Corporation
cci, Crown Castle International Corporation
cmcsa, Comcast Corporation
cce, Coca Cola European Partners plc
wyn, wyn
jbl, Jabil Inc
thc, Tenet Healthcare Corporation
tss, Total System Services Inc
adbe, Adobe Systems Incorporated
xec, Cimarex Energy Co
xel, Xcel Energy Inc
cien, Ciena Corporation
wec, WEC Energy Group Inc
adt, ADT Inc
hal, Halliburton Company
ads, Alliance Data Systems Corporation
adp, Automatic Data Processing Inc
nlsn, Nielsen N V
sndk, sndk
gme, Gamestop Corporation
rost, Ross Stores Inc
har, har
adm, Archer Daniels Midland Company
adi, Analog Devices Inc
zion, Zions Bancorporation N A
mos, Mosaic Company The
big, Big Lots Inc
psa, Public Storage
ame, AMTEK Inc
amd, Advanced Micro Devices Inc
amg, Affiliated Managers Group Inc
ffiv, F Networks Inc
psx, Phillips
mon, mon
amp, AMERIPRISE FINANCIAL SERVICES INC
amt, American Tower Corporation REIT
msft, Microsoft Corporation
mhk, Mohawk Industries Inc
tsco, Tractor Supply Company
d, Dominion Energy Inc
oi, Owens Illinois Inc
t, AT T Inc
jnpr, Juniper Networks Inc
wba, Walgreens Boots Alliance Inc
urbn, Urban Outfitters Inc
qep, QEP Resources Inc
acas, acas
nvda, NVIDIA Corporation
amzn, Amazon com Inc
esv, ENSCO plc
avgo, Broadcom Inc
ess, Essex Property Trust Inc
kmb, Kimberly Clark Corporation
cnp, CenterPoint Energy Inc
dds, Dillard s Inc
ddr, DDR Corp
fox, Twenty First Century Fox Inc
cnx, CNX Resources Corporation
fcx, Freeport McMoran Inc
cnc, Centene Corporation
peg, Public Service Enterprise Group Incorporated
kmx, CarMax Inc
symc, Symantec Corporation
ba, Boeing Company The
bc, Brunswick Corporation
tdc, Teradata Corporation
pmcs, pmcs
orly, O Reilly Automotive Inc
bk, Bank Of New York Mellon Corporation The
pld, Prologis Inc
hst, Host Hotels Resorts Inc
hsy, Hershey Company The
rhi, Robert Half International Inc
ace, ace
bgg, Briggs Stratton Corporation
acn, Accenture plc
o, Realty Income Corporation
payx, Paychex Inc
ppg, PPG Industries Inc
mbi, MBIA Inc
intc, Intel Corporation
nsc, Norfolk Souther Corporation
ppl, PPL Corporation
intu, Intuit Inc
alxn, Alexion Pharmaceuticals Inc
xyl, Xylem Inc
gis, General Mills Inc
hes, Hess Corporation
fast, Fastenal Company
rcl, Royal Caribbean Cruises Ltd
low, Lowe s Companies Inc
var, Varian Medical Systems Inc
wat, Waters Corporation
pwr, Quanta Services Inc
hls, hls
hp, Helmerich Payne Inc
yhoo, yhoo
isrg, Intuitive Surgical Inc
hd, Home Depot Inc The
azo, AutoZone Inc
mtw, Manitowoc Company Inc The
flir, FLIR Systems Inc
un, Unilever NV
bbby, Bed Bath Beyond Inc
mtb, M T Bank Corporation
fdx, FedEx Corporation
utx, United Technologies Corporation
amcc, amcc
mtg, MGIC Investment Corporation
aa, Alcoa Corporation
cbg, cbg
m, Macy s Inc
an, AutoNation Inc
cbs, CBS Corporation
uis, Unisys Corporation
myl, Mylan N V
lyb, LyondellBasell Industries NV
pfe, Pfizer Inc
adsk, Autodesk Inc
ni, NiSource Inc
igt, International Game Technology
jcp, J C Penney Company Inc Holding Company
googl, Alphabet Inc
hpq, HP Inc
nc, NACCO Industries Inc
ne, Noble Corporation
nav, Navistar International Corporation
mdt, Medtronic plc
gra, W R Grace Co
atvi, Activision Blizzard Inc
tif, Tiffany Co
jci, Johnson Controls International plc
hpe, Hewlett Packard Enterprise Company
nrg, NRG Energy Inc
bvsn, BroadVision Inc
kors, Michael Kors Holdings Limited
agn, Allergan plc
dvn, Devon Energy Corporation
eog, EOG Resources Inc
cpb, Campbell Soup Company
dva, DaVita Inc
svu, SuperValu Inc
bcr, bcr
